\relax 
\citation{Pasareanu:2010}
\citation{PonzioDrivers19}
\citation{Fraser:2011,Abad:2013}
\citation{Clarke:2004,Visser:2005}
\citation{Calcagno:2011}
\@writefile{toc}{\contentsline {title}{Detecci\IeC {\'o}n autom\IeC {\'a}tica de m\IeC {\'e}todos suficientes y no superfluos para la construcci\IeC {\'o}n de drivers eficientes en bounded model checking}{1}\protected@file@percent }
\@writefile{toc}{\authcount {4}}
\@writefile{toc}{\contentsline {author}{ Mariano Politano \and Valeria S.\nobreakspace  {}Bengolea \and Pablo Ponzio \and Nazareno Aguirre }{1}\protected@file@percent }
\@writefile{toc}{\contentsline {section}{\numberline {1}Introducci\IeC {\'o}n}{1}\protected@file@percent }
\citation{Visser:2005}
\citation{}
\citation{PonzioDrivers19}
\citation{apache}
\@writefile{lot}{\contentsline {table}{\numberline {1}{\ignorespaces  API de Apache NodeCachingLinkedList }}{3}\protected@file@percent }
\newlabel{tab:ncl-api}{{1}{3}}
\@writefile{toc}{\contentsline {section}{\numberline {2}Ejemplo motivador}{3}\protected@file@percent }
\newlabel{sec:Motivacion}{{2}{3}}
\citation{Russell:2009}
\citation{Goldberg:1989}
\newlabel{fig:NCLadds}{{1.1}{4}}
\@writefile{lol}{\contentsline {lstlisting}{\numberline {1.1}Variantes del metodo Add}{4}\protected@file@percent }
\newlabel{fig:driver}{{1.2}{4}}
\@writefile{lol}{\contentsline {lstlisting}{\numberline {1.2}driverNLC}{4}\protected@file@percent }
\@writefile{toc}{\contentsline {section}{\numberline {3}Generaci\IeC {\'o}n autom\IeC {\'a}tica de objectos}{4}\protected@file@percent }
\newlabel{sec:herramienta}{{3}{4}}
\citation{Pacheco:2007}
\@writefile{toc}{\contentsline {section}{\numberline {4}Resultado Experimental}{6}\protected@file@percent }
\newlabel{sec:resultados}{{4}{6}}
\@writefile{lot}{\contentsline {table}{\numberline {2}{\ignorespaces Resultado de la generaracion}}{7}\protected@file@percent }
\newlabel{tableDrive}{{2}{7}}
\@writefile{toc}{\contentsline {section}{\numberline {5}Trabajo Relacionado}{7}\protected@file@percent }
\citation{DBLP:conf/icse/BraioneDMP18}
\citation{jgap}
\@writefile{toc}{\contentsline {section}{\numberline {6}Conclusiones}{8}\protected@file@percent }
\bibdata{bibliography}
\bibstyle{splncs04}
